<svg width="36" height="37" viewBox="0 0 36 37" fill="none" xmlns="http://www.w3.org/2000/svg">
<rect width="35.9997" height="35.9997" transform="translate(0 0.750732)" fill="#0188CF"/>
<path d="M17.9998 36.7504C27.9409 36.7504 35.9997 28.6916 35.9997 18.7506C35.9997 8.80956 27.9409 0.750732 17.9998 0.750732C8.05883 0.750732 0 8.80956 0 18.7506C0 28.6916 8.05883 36.7504 17.9998 36.7504Z" fill="#0188CF"/>
<path d="M6.70347 19.6307C8.80764 18.4717 11.1565 17.5043 13.3511 16.532C17.1267 14.9395 20.9173 13.3746 24.7462 11.9176C25.4912 11.6694 26.8297 11.4266 26.9609 12.5306C26.8891 14.0933 26.5934 15.6468 26.3906 17.2003C25.8759 20.6167 25.281 24.0214 24.7009 27.4265C24.501 28.5607 23.0802 29.1479 22.171 28.4221C19.9861 26.9462 17.7845 25.4848 15.6275 23.9747C14.9209 23.2568 15.5761 22.2258 16.2071 21.7131C18.0067 19.9396 19.9151 18.4329 21.6206 16.5678C22.0806 15.4568 20.7214 16.3931 20.273 16.68C17.8094 18.3777 15.4062 20.179 12.8088 21.6711C11.482 22.4014 9.9357 21.7773 8.60957 21.3697C7.42051 20.8774 5.67811 20.3814 6.70335 19.6308L6.70347 19.6307Z" fill="white"/>
</svg>
