﻿{
	"name": "..",
  "flop": [ "s8", "dk", "h10" ],
  "turn": "s7",
	"river": "h7",
	"dealer_id": 0,
	"blind_size": 10,
	"players": [
    { "id": 0, "active": true, "playable": "no", "name": "ashes", "balance": 5050, "image": null, "cards": ["c9", "c6"], "strategy": "callblinds" },
    { "id": 1, "active": true, "playable": "no", "name": "gosha", "balance": 3000, "image": null, "cards": ["s3", "s6"], "strategy": "alwayscall" },
    { "id": 2, "active": true, "playable": "no", "name": "sasha", "balance": 1200, "image": null, "cards": ["s2", "hk"], "strategy": "callblinds" },
    { "id": 3, "active": true, "playable": "no", "name": "player999", "balance": 5000, "image": "avatar-1.jpg", "cards": ["sk", "h5"], "strategy": "callblinds" },
    { "id": 4, "active": true, "playable": "no", "name": "Андрей66", "balance": 25700, "image": "avatar-andrey.jpg", "cards": ["d7", "d8"], "strategy": "alwayscall" },
    { "id": 5, "active": true, "playable": "no", "name": "Vadim", "balance": 1800, "image": "avatar2.jpg", "cards": ["h3", "h6"], "strategy": "callblinds" }
	],
  "rounds": [
    [{ "id": 0, "action": "check", "bet": 0 }, { "id": 1, "action": "check", "bet": 0 }, { "id": 2, "action": "check", "bet": 0 }, { "id": 3, "action": "check", "bet": 0 }, { "id": 4, "action": "call", "bet": 0 }, { "id": 2, "action": "call", "bet": 0 }],
    [{ "id": 0, "action": "raise", "bet": 150 }, { "id": 1, "action": "raise", "bet": 500 }, { "id": 2, "action": "call", "bet": 0 }, { "id": 3, "action": "call", "bet": 0 }, { "id": 4, "action": "check", "bet": 0 }, { "id": 5, "action": "raise", "bet": 1200 }],
    [{ "id": 0, "action": "check", "bet": 0 }, { "id": 1, "action": "check", "bet": 0 }, { "id": 2, "action": "check", "bet": 0 }, { "id": 3, "action": "check", "bet": 0 }, { "id": 4, "action": "check", "bet": 0 }, { "id": 5, "action": "check", "bet": 0 }],
    [{ "id": 0, "action": "check", "bet": 0 }, { "id": 1, "action": "raise", "bet": 200 }, { "id": 2, "action": "call", "bet": 0 }, { "id": 3, "action": "call", "bet": 0 }, { "id": 4, "action": "call", "bet": 0 }, { "id": 5, "action": "call", "bet": 0 }]
  ]
}